{
  "swagger": "2.0",
  "info": {
    "title": "cart.admin.api.proto",
    "version": "version not set"
  },
  "consumes": [
    "application/json"
  ],
  "produces": [
    "application/json"
  ],
  "paths": {},
  "definitions": {
    "protoAddBillingAddressToCartResponse": {
      "type": "object",
      "properties": {
        "cart": {
          "$ref": "#/definitions/protoCart"
        }
      }
    },
    "protoAddDeliveryAddressToCartResponse": {
      "type": "object",
      "properties": {
        "cart": {
          "$ref": "#/definitions/protoCart"
        }
      }
    },
    "protoAddItemToCartResponse": {
      "type": "object",
      "properties": {
        "cart": {
          "$ref": "#/definitions/protoCart"
        }
      }
    },
    "protoAddMediaItemToCartItemResponse": {
      "type": "object",
      "properties": {
        "cart": {
          "$ref": "#/definitions/protoCart"
        }
      }
    },
    "protoAttachUserToCartResponse": {
      "type": "object"
    },
    "protoCart": {
      "type": "object",
      "properties": {
        "id": {
          "type": "string",
          "format": "int64"
        },
        "createdAt": {
          "type": "string"
        },
        "updatedAt": {
          "type": "string"
        },
        "items": {
          "type": "array",
          "items": {
            "$ref": "#/definitions/protoCartItem"
          }
        },
        "itemsTotal": {
          "type": "integer",
          "format": "int32"
        },
        "checkoutState": {
          "type": "string"
        },
        "customerId": {
          "type": "string",
          "format": "int64"
        },
        "differentBillingAddress": {
          "type": "boolean",
          "format": "boolean"
        },
        "shippingAddress": {
          "$ref": "#/definitions/protoCartAddress"
        },
        "billingAddress": {
          "$ref": "#/definitions/protoCartAddress"
        }
      }
    },
    "protoCartAddress": {
      "type": "object",
      "properties": {
        "id": {
          "type": "string",
          "format": "int64"
        },
        "name": {
          "type": "string"
        },
        "city": {
          "type": "string"
        },
        "postcode": {
          "type": "string"
        },
        "street": {
          "type": "string"
        },
        "country": {
          "type": "string"
        },
        "phone": {
          "type": "string"
        },
        "company": {
          "type": "string"
        },
        "addressLine1": {
          "type": "string"
        },
        "addressLine2": {
          "type": "string"
        }
      }
    },
    "protoCartImage": {
      "type": "object",
      "properties": {
        "url": {
          "type": "string"
        },
        "mimeType": {
          "type": "string"
        }
      }
    },
    "protoCartItem": {
      "type": "object",
      "properties": {
        "id": {
          "type": "string",
          "format": "int64"
        },
        "specId": {
          "type": "string",
          "format": "int64"
        },
        "productId": {
          "type": "string",
          "format": "int64"
        },
        "qty": {
          "type": "integer",
          "format": "int32"
        },
        "salesPrice": {
          "type": "number",
          "format": "double"
        },
        "changes": {
          "type": "string"
        },
        "newSalesPrice": {
          "type": "number",
          "format": "double"
        },
        "product": {
          "$ref": "#/definitions/protoCartProduct"
        },
        "mediaItemIDs": {
          "type": "array",
          "items": {
            "type": "string",
            "format": "int64"
          }
        },
        "mediaItems": {
          "type": "array",
          "items": {
            "$ref": "#/definitions/protoMedia"
          }
        },
        "costPrice": {
          "type": "number",
          "format": "double"
        }
      }
    },
    "protoCartProduct": {
      "type": "object",
      "properties": {
        "heroDescription": {
          "type": "string"
        },
        "cardDescription": {
          "type": "string"
        },
        "attributes": {
          "type": "array",
          "items": {
            "$ref": "#/definitions/protoCartProductAttribute"
          }
        },
        "vat": {
          "type": "number",
          "format": "double"
        },
        "name": {
          "type": "string"
        },
        "images": {
          "type": "array",
          "items": {
            "$ref": "#/definitions/protoCartImage"
          }
        }
      }
    },
    "protoCartProductAttribute": {
      "type": "object",
      "properties": {
        "ID": {
          "type": "string",
          "format": "int64"
        },
        "AttributeID": {
          "type": "string",
          "format": "int64"
        },
        "Order": {
          "type": "integer",
          "format": "int32"
        },
        "Type": {
          "type": "string"
        },
        "Name": {
          "type": "string"
        },
        "TechnicalName": {
          "type": "string"
        },
        "DefaultStyle": {
          "type": "string"
        },
        "AppendTitle": {
          "type": "string"
        },
        "HelpText": {
          "type": "string"
        },
        "Option": {
          "$ref": "#/definitions/protoOption"
        }
      }
    },
    "protoCreateCartResponse": {
      "type": "object",
      "properties": {
        "cart": {
          "$ref": "#/definitions/protoCart"
        },
        "token": {
          "type": "string"
        }
      }
    },
    "protoDeleteCartResponse": {
      "type": "object"
    },
    "protoGetCartResponse": {
      "type": "object",
      "properties": {
        "cart": {
          "$ref": "#/definitions/protoCart"
        }
      }
    },
    "protoMedia": {
      "type": "object",
      "properties": {
        "id": {
          "type": "string",
          "format": "int64"
        },
        "createdAt": {
          "type": "string"
        },
        "updatedAt": {
          "type": "string"
        },
        "url": {
          "type": "string"
        },
        "filename": {
          "type": "string"
        },
        "contentType": {
          "type": "string"
        },
        "thumbnail": {
          "$ref": "#/definitions/protoMediaImage"
        },
        "imagePreview": {
          "$ref": "#/definitions/protoMediaImage"
        }
      }
    },
    "protoMediaImage": {
      "type": "object",
      "properties": {
        "id": {
          "type": "string",
          "format": "int64"
        },
        "url": {
          "type": "string"
        },
        "filename": {
          "type": "string"
        },
        "contentType": {
          "type": "string"
        }
      }
    },
    "protoOption": {
      "type": "object",
      "properties": {
        "default": {
          "$ref": "#/definitions/protoOptionDefault"
        },
        "sizer": {
          "$ref": "#/definitions/protoOptionSize"
        },
        "range": {
          "$ref": "#/definitions/protoOptionRange"
        },
        "stock": {
          "$ref": "#/definitions/protoOptionStock"
        },
        "child": {
          "$ref": "#/definitions/protoOptionWithChild"
        }
      }
    },
    "protoOptionDefault": {
      "type": "object",
      "properties": {
        "id": {
          "type": "string",
          "format": "int64"
        },
        "name": {
          "type": "string"
        },
        "description": {
          "type": "string"
        },
        "thumbnail": {
          "type": "string"
        },
        "tags": {
          "type": "array",
          "items": {
            "type": "string"
          }
        },
        "technicalName": {
          "type": "string"
        }
      },
      "title": "DEFINITIONS"
    },
    "protoOptionRange": {
      "type": "object",
      "properties": {
        "id": {
          "type": "string",
          "format": "int64"
        },
        "min": {
          "type": "integer",
          "format": "int32"
        },
        "max": {
          "type": "integer",
          "format": "int32"
        },
        "step": {
          "type": "integer",
          "format": "int32"
        },
        "name": {
          "type": "string"
        },
        "technicalName": {
          "type": "string"
        }
      }
    },
    "protoOptionSize": {
      "type": "object",
      "properties": {
        "id": {
          "type": "string",
          "format": "int64"
        },
        "name": {
          "type": "string"
        },
        "description": {
          "type": "string"
        },
        "thumbnail": {
          "type": "string"
        },
        "height": {
          "type": "integer",
          "format": "int32"
        },
        "width": {
          "type": "integer",
          "format": "int32"
        },
        "tags": {
          "type": "array",
          "items": {
            "type": "string"
          }
        },
        "technicalName": {
          "type": "string"
        }
      }
    },
    "protoOptionStock": {
      "type": "object",
      "properties": {
        "id": {
          "type": "string",
          "format": "int64"
        },
        "name": {
          "type": "string"
        },
        "weight": {
          "type": "integer",
          "format": "int32"
        },
        "weightUnit": {
          "type": "string"
        },
        "technicalName": {
          "type": "string"
        }
      }
    },
    "protoOptionWithChild": {
      "type": "object",
      "properties": {
        "id": {
          "type": "string",
          "format": "int64"
        },
        "name": {
          "type": "string"
        },
        "description": {
          "type": "string"
        },
        "thumbnail": {
          "type": "string"
        },
        "options": {
          "type": "array",
          "items": {
            "$ref": "#/definitions/protoOption"
          }
        },
        "childType": {
          "type": "string"
        },
        "technicalName": {
          "type": "string"
        }
      }
    },
    "protoRemoveBillingAddressFromCartResponse": {
      "type": "object",
      "properties": {
        "cart": {
          "$ref": "#/definitions/protoCart"
        }
      }
    },
    "protoRemoveDeliveryAddressFromCartResponse": {
      "type": "object",
      "properties": {
        "cart": {
          "$ref": "#/definitions/protoCart"
        }
      }
    },
    "protoRemoveItemFromCartResponse": {
      "type": "object",
      "properties": {
        "cart": {
          "$ref": "#/definitions/protoCart"
        }
      }
    },
    "protoRemoveMediaItemFromCartItemResponse": {
      "type": "object",
      "properties": {
        "cart": {
          "$ref": "#/definitions/protoCart"
        }
      }
    },
    "protobufAny": {
      "type": "object",
      "properties": {
        "type_url": {
          "type": "string"
        },
        "value": {
          "type": "string",
          "format": "byte"
        }
      }
    },
    "runtimeError": {
      "type": "object",
      "properties": {
        "error": {
          "type": "string"
        },
        "code": {
          "type": "integer",
          "format": "int32"
        },
        "message": {
          "type": "string"
        },
        "details": {
          "type": "array",
          "items": {
            "$ref": "#/definitions/protobufAny"
          }
        }
      }
    }
  }
}
