{
  "swagger": "2.0",
  "info": {
    "title": "product.supplier.api.proto",
    "version": "version not set"
  },
  "consumes": [
    "application/json"
  ],
  "produces": [
    "application/json"
  ],
  "paths": {
    "/supplier/api/p/finishing-option": {
      "get": {
        "summary": "FinishingOption",
        "operationId": "ProductService_GetFinishingOptions",
        "responses": {
          "200": {
            "description": "A successful response.",
            "schema": {
              "$ref": "#/definitions/protoGetFinishingOptionsResponse"
            }
          },
          "default": {
            "description": "An unexpected error response",
            "schema": {
              "$ref": "#/definitions/runtimeError"
            }
          }
        },
        "tags": [
          "ProductService"
        ]
      }
    },
    "/supplier/api/p/printing-method": {
      "get": {
        "summary": "PrintingMethod",
        "operationId": "ProductService_GetPrintingMethods",
        "responses": {
          "200": {
            "description": "A successful response.",
            "schema": {
              "$ref": "#/definitions/protoGetPrintingMethodsResponse"
            }
          },
          "default": {
            "description": "An unexpected error response",
            "schema": {
              "$ref": "#/definitions/runtimeError"
            }
          }
        },
        "tags": [
          "ProductService"
        ]
      }
    },
    "/supplier/api/p/product-category": {
      "get": {
        "summary": "ProductCategory",
        "operationId": "ProductService_GetProductCategories",
        "responses": {
          "200": {
            "description": "A successful response.",
            "schema": {
              "$ref": "#/definitions/protoGetProductCategoriesResponse"
            }
          },
          "default": {
            "description": "An unexpected error response",
            "schema": {
              "$ref": "#/definitions/runtimeError"
            }
          }
        },
        "tags": [
          "ProductService"
        ]
      }
    },
    "/supplier/api/p/product/id/{id}": {
      "get": {
        "operationId": "ProductService_GetProductById",
        "responses": {
          "200": {
            "description": "A successful response.",
            "schema": {
              "$ref": "#/definitions/protoGetProductByIdResponse"
            }
          },
          "default": {
            "description": "An unexpected error response",
            "schema": {
              "$ref": "#/definitions/runtimeError"
            }
          }
        },
        "parameters": [
          {
            "name": "id",
            "in": "path",
            "required": true,
            "type": "string",
            "format": "int64"
          },
          {
            "name": "expand",
            "in": "query",
            "required": false,
            "type": "string"
          }
        ],
        "tags": [
          "ProductService"
        ]
      }
    },
    "/supplier/api/p/product/ids/{ids}": {
      "get": {
        "operationId": "ProductService_GetProductByIds",
        "responses": {
          "200": {
            "description": "A successful response.",
            "schema": {
              "$ref": "#/definitions/protoGetProductByIdsResponse"
            }
          },
          "default": {
            "description": "An unexpected error response",
            "schema": {
              "$ref": "#/definitions/runtimeError"
            }
          }
        },
        "parameters": [
          {
            "name": "ids",
            "in": "path",
            "required": true,
            "type": "string"
          },
          {
            "name": "expand",
            "in": "query",
            "required": false,
            "type": "string"
          }
        ],
        "tags": [
          "ProductService"
        ]
      }
    }
  },
  "definitions": {
    "protoCollection": {
      "type": "object",
      "properties": {
        "id": {
          "type": "string",
          "format": "int64"
        },
        "name": {
          "type": "string"
        }
      }
    },
    "protoFinishingOption": {
      "type": "object",
      "properties": {
        "id": {
          "type": "string",
          "format": "int64"
        },
        "name": {
          "type": "string"
        }
      },
      "title": "Finishing Options"
    },
    "protoGetFinishingOptionsResponse": {
      "type": "object",
      "properties": {
        "data": {
          "type": "array",
          "items": {
            "$ref": "#/definitions/protoFinishingOption"
          }
        }
      }
    },
    "protoGetPrintingMethodsResponse": {
      "type": "object",
      "properties": {
        "data": {
          "type": "array",
          "items": {
            "$ref": "#/definitions/protoPrintingMethod"
          }
        }
      }
    },
    "protoGetProductByIdResponse": {
      "type": "object",
      "properties": {
        "product": {
          "$ref": "#/definitions/protoProduct"
        }
      }
    },
    "protoGetProductByIdsResponse": {
      "type": "object",
      "properties": {
        "products": {
          "type": "array",
          "items": {
            "$ref": "#/definitions/protoProduct"
          }
        }
      }
    },
    "protoGetProductCategoriesResponse": {
      "type": "object",
      "properties": {
        "data": {
          "type": "array",
          "items": {
            "$ref": "#/definitions/protoProductCategory"
          }
        }
      }
    },
    "protoKudoImage": {
      "type": "object",
      "properties": {
        "id": {
          "type": "string",
          "format": "int64"
        },
        "url": {
          "type": "string"
        },
        "mimeType": {
          "type": "string"
        }
      }
    },
    "protoOption": {
      "type": "object",
      "properties": {
        "default": {
          "$ref": "#/definitions/protoOptionDefault"
        },
        "sizer": {
          "$ref": "#/definitions/protoOptionSize"
        },
        "range": {
          "$ref": "#/definitions/protoOptionRange"
        },
        "stock": {
          "$ref": "#/definitions/protoOptionStock"
        },
        "child": {
          "$ref": "#/definitions/protoOptionWithChild"
        }
      }
    },
    "protoOptionDefault": {
      "type": "object",
      "properties": {
        "id": {
          "type": "string",
          "format": "int64"
        },
        "name": {
          "type": "string"
        },
        "description": {
          "type": "string"
        },
        "thumbnail": {
          "type": "string"
        },
        "tags": {
          "type": "array",
          "items": {
            "type": "string"
          }
        },
        "technicalName": {
          "type": "string"
        }
      },
      "title": "DEFINITIONS"
    },
    "protoOptionRange": {
      "type": "object",
      "properties": {
        "id": {
          "type": "string",
          "format": "int64"
        },
        "min": {
          "type": "integer",
          "format": "int32"
        },
        "max": {
          "type": "integer",
          "format": "int32"
        },
        "step": {
          "type": "integer",
          "format": "int32"
        },
        "name": {
          "type": "string"
        },
        "technicalName": {
          "type": "string"
        }
      }
    },
    "protoOptionSize": {
      "type": "object",
      "properties": {
        "id": {
          "type": "string",
          "format": "int64"
        },
        "name": {
          "type": "string"
        },
        "description": {
          "type": "string"
        },
        "thumbnail": {
          "type": "string"
        },
        "height": {
          "type": "integer",
          "format": "int32"
        },
        "width": {
          "type": "integer",
          "format": "int32"
        },
        "tags": {
          "type": "array",
          "items": {
            "type": "string"
          }
        },
        "technicalName": {
          "type": "string"
        }
      }
    },
    "protoOptionStock": {
      "type": "object",
      "properties": {
        "id": {
          "type": "string",
          "format": "int64"
        },
        "name": {
          "type": "string"
        },
        "weight": {
          "type": "integer",
          "format": "int32"
        },
        "weightUnit": {
          "type": "string"
        },
        "technicalName": {
          "type": "string"
        }
      }
    },
    "protoOptionWithChild": {
      "type": "object",
      "properties": {
        "id": {
          "type": "string",
          "format": "int64"
        },
        "name": {
          "type": "string"
        },
        "description": {
          "type": "string"
        },
        "thumbnail": {
          "type": "string"
        },
        "options": {
          "type": "array",
          "items": {
            "$ref": "#/definitions/protoOption"
          }
        },
        "childType": {
          "type": "string"
        },
        "technicalName": {
          "type": "string"
        }
      }
    },
    "protoPrintingMethod": {
      "type": "object",
      "properties": {
        "id": {
          "type": "string",
          "format": "int64"
        },
        "name": {
          "type": "string"
        }
      },
      "title": "Printing Methods"
    },
    "protoProduct": {
      "type": "object",
      "properties": {
        "id": {
          "type": "string",
          "format": "int64"
        },
        "createdAt": {
          "type": "string"
        },
        "updatedAt": {
          "type": "string"
        },
        "name": {
          "type": "string"
        },
        "uid": {
          "type": "string"
        },
        "heroDescription": {
          "type": "string"
        },
        "cardDescription": {
          "type": "string"
        },
        "price": {
          "type": "integer",
          "format": "int32"
        },
        "status": {
          "type": "string"
        },
        "attributes": {
          "type": "array",
          "items": {
            "$ref": "#/definitions/protoProductAttribute"
          }
        },
        "features": {
          "type": "array",
          "items": {
            "type": "string"
          }
        },
        "collections": {
          "type": "array",
          "items": {
            "$ref": "#/definitions/protoCollection"
          }
        },
        "images": {
          "type": "array",
          "items": {
            "$ref": "#/definitions/protoKudoImage"
          }
        },
        "vat": {
          "type": "number",
          "format": "double"
        },
        "featured": {
          "type": "boolean",
          "format": "boolean"
        }
      }
    },
    "protoProductAttribute": {
      "type": "object",
      "properties": {
        "id": {
          "type": "string",
          "format": "int64"
        },
        "createdAt": {
          "type": "string"
        },
        "updatedAt": {
          "type": "string"
        },
        "productId": {
          "type": "string",
          "format": "int64"
        },
        "attributeId": {
          "type": "string",
          "format": "int64"
        },
        "order": {
          "type": "integer",
          "format": "int32"
        },
        "type": {
          "type": "string"
        },
        "name": {
          "type": "string"
        },
        "defaultStyle": {
          "type": "string"
        },
        "appendTitle": {
          "type": "string"
        },
        "helpText": {
          "type": "string"
        },
        "options": {
          "type": "array",
          "items": {
            "$ref": "#/definitions/protoOption"
          }
        },
        "Hidden": {
          "type": "boolean",
          "format": "boolean"
        },
        "technicalName": {
          "type": "string"
        },
        "image": {
          "$ref": "#/definitions/protoKudoImage"
        }
      }
    },
    "protoProductCategory": {
      "type": "object",
      "properties": {
        "id": {
          "type": "string",
          "format": "int64"
        },
        "name": {
          "type": "string"
        }
      },
      "title": "Product Category"
    },
    "protobufAny": {
      "type": "object",
      "properties": {
        "type_url": {
          "type": "string"
        },
        "value": {
          "type": "string",
          "format": "byte"
        }
      }
    },
    "runtimeError": {
      "type": "object",
      "properties": {
        "error": {
          "type": "string"
        },
        "code": {
          "type": "integer",
          "format": "int32"
        },
        "message": {
          "type": "string"
        },
        "details": {
          "type": "array",
          "items": {
            "$ref": "#/definitions/protobufAny"
          }
        }
      }
    }
  }
}
