{
  "swagger": "2.0",
  "info": {
    "title": "supplier.supplier.api.proto",
    "version": "version not set"
  },
  "consumes": [
    "application/json"
  ],
  "produces": [
    "application/json"
  ],
  "paths": {
    "/supplier/api/supplier": {
      "post": {
        "operationId": "CompanyService_CreateCompany",
        "responses": {
          "200": {
            "description": "A successful response.",
            "schema": {
              "$ref": "#/definitions/protoCreateCompanyResponse"
            }
          },
          "default": {
            "description": "An unexpected error response",
            "schema": {
              "$ref": "#/definitions/runtimeError"
            }
          }
        },
        "parameters": [
          {
            "name": "body",
            "in": "body",
            "required": true,
            "schema": {
              "$ref": "#/definitions/protoCreateCompanyRequest"
            }
          }
        ],
        "tags": [
          "CompanyService"
        ]
      }
    },
    "/supplier/api/supplier/me": {
      "get": {
        "operationId": "CompanyService_GetMyCompany",
        "responses": {
          "200": {
            "description": "A successful response.",
            "schema": {
              "$ref": "#/definitions/protoGetMyCompanyResponse"
            }
          },
          "default": {
            "description": "An unexpected error response",
            "schema": {
              "$ref": "#/definitions/runtimeError"
            }
          }
        },
        "parameters": [
          {
            "name": "expand",
            "in": "query",
            "required": false,
            "type": "string"
          }
        ],
        "tags": [
          "CompanyService"
        ]
      },
      "patch": {
        "operationId": "CompanyService_UpdateMyCompany",
        "responses": {
          "200": {
            "description": "A successful response.",
            "schema": {
              "$ref": "#/definitions/protoUpdateMyCompanyResponse"
            }
          },
          "default": {
            "description": "An unexpected error response",
            "schema": {
              "$ref": "#/definitions/runtimeError"
            }
          }
        },
        "parameters": [
          {
            "name": "body",
            "in": "body",
            "required": true,
            "schema": {
              "$ref": "#/definitions/protoUpdateMyCompanyRequest"
            }
          }
        ],
        "tags": [
          "CompanyService"
        ]
      }
    }
  },
  "definitions": {
    "protoCompany": {
      "type": "object",
      "properties": {
        "id": {
          "type": "string",
          "format": "int64"
        },
        "name": {
          "type": "string"
        },
        "website": {
          "type": "string"
        },
        "phone": {
          "type": "string"
        },
        "email": {
          "type": "string"
        },
        "whiteLabel": {
          "type": "boolean",
          "format": "boolean"
        },
        "applicationNotes": {
          "type": "string"
        },
        "companyNumber": {
          "type": "string"
        },
        "companyAddress": {
          "$ref": "#/definitions/protoCompanyAddress"
        },
        "state": {
          "type": "string"
        },
        "createdAt": {
          "type": "string"
        }
      }
    },
    "protoCompanyAddress": {
      "type": "object",
      "properties": {
        "id": {
          "type": "string",
          "format": "int64"
        },
        "companyId": {
          "type": "string",
          "format": "int64"
        },
        "AddressLine1": {
          "type": "string"
        },
        "AddressLine2": {
          "type": "string"
        },
        "AddressCity": {
          "type": "string"
        },
        "AddressZip": {
          "type": "string"
        },
        "AddressCountry": {
          "type": "string"
        }
      }
    },
    "protoCreateCompanyRequest": {
      "type": "object",
      "properties": {
        "password": {
          "type": "string"
        },
        "repeatedPassword": {
          "type": "string"
        }
      }
    },
    "protoCreateCompanyResponse": {
      "type": "object",
      "properties": {
        "company": {
          "$ref": "#/definitions/protoCompany"
        },
        "admin": {
          "$ref": "#/definitions/protoSupplierAdmin"
        },
        "token": {
          "type": "string"
        }
      }
    },
    "protoGetCompaniesResponse": {
      "type": "object",
      "properties": {
        "data": {
          "type": "array",
          "items": {
            "$ref": "#/definitions/protoCompany"
          }
        },
        "page": {
          "type": "integer",
          "format": "int32"
        },
        "limit": {
          "type": "integer",
          "format": "int32"
        },
        "count": {
          "type": "integer",
          "format": "int32"
        },
        "searchTerm": {
          "type": "string"
        },
        "state": {
          "type": "string"
        },
        "finishingOptions": {
          "type": "string"
        },
        "printingMethods": {
          "type": "string"
        },
        "productCategories": {
          "type": "string"
        }
      }
    },
    "protoGetCompanyByIdResponse": {
      "type": "object",
      "properties": {
        "company": {
          "$ref": "#/definitions/protoCompany"
        },
        "printingMethods": {
          "type": "array",
          "items": {
            "$ref": "#/definitions/protoSupplierPrintingMethod"
          }
        },
        "finishingOptions": {
          "type": "array",
          "items": {
            "$ref": "#/definitions/protoSupplierFinishingOption"
          }
        },
        "productCategories": {
          "type": "array",
          "items": {
            "$ref": "#/definitions/protoSupplierProductCategory"
          }
        },
        "users": {
          "type": "array",
          "items": {
            "$ref": "#/definitions/protoSupplierAdmin"
          }
        }
      }
    },
    "protoGetMyCompanyResponse": {
      "type": "object",
      "properties": {
        "company": {
          "$ref": "#/definitions/protoCompany"
        },
        "printingMethods": {
          "type": "array",
          "items": {
            "$ref": "#/definitions/protoSupplierPrintingMethod"
          }
        },
        "finishingOptions": {
          "type": "array",
          "items": {
            "$ref": "#/definitions/protoSupplierFinishingOption"
          }
        },
        "productCategories": {
          "type": "array",
          "items": {
            "$ref": "#/definitions/protoSupplierProductCategory"
          }
        },
        "users": {
          "type": "array",
          "items": {
            "$ref": "#/definitions/protoSupplierAdmin"
          }
        }
      }
    },
    "protoSupplierAdmin": {
      "type": "object",
      "properties": {
        "id": {
          "type": "string",
          "format": "int64"
        },
        "name": {
          "type": "string"
        },
        "email": {
          "type": "string"
        },
        "role": {
          "type": "string"
        },
        "phone": {
          "type": "string"
        },
        "active": {
          "type": "boolean",
          "format": "boolean"
        }
      }
    },
    "protoSupplierFinishingOption": {
      "type": "object",
      "properties": {
        "id": {
          "type": "string",
          "format": "int64"
        },
        "name": {
          "type": "string"
        }
      }
    },
    "protoSupplierPrintingMethod": {
      "type": "object",
      "properties": {
        "id": {
          "type": "string",
          "format": "int64"
        },
        "name": {
          "type": "string"
        }
      }
    },
    "protoSupplierProductCategory": {
      "type": "object",
      "properties": {
        "id": {
          "type": "string",
          "format": "int64"
        },
        "name": {
          "type": "string"
        }
      }
    },
    "protoUpdateCompanyStatusResponse": {
      "type": "object",
      "properties": {
        "company": {
          "$ref": "#/definitions/protoCompany"
        },
        "printingMethods": {
          "type": "array",
          "items": {
            "$ref": "#/definitions/protoSupplierPrintingMethod"
          }
        },
        "finishingOptions": {
          "type": "array",
          "items": {
            "$ref": "#/definitions/protoSupplierFinishingOption"
          }
        },
        "productCategories": {
          "type": "array",
          "items": {
            "$ref": "#/definitions/protoSupplierProductCategory"
          }
        },
        "users": {
          "type": "array",
          "items": {
            "$ref": "#/definitions/protoSupplierAdmin"
          }
        }
      }
    },
    "protoUpdateMyCompanyRequest": {
      "type": "object",
      "properties": {
        "company": {
          "$ref": "#/definitions/protoCompany"
        },
        "printingMethods": {
          "type": "array",
          "items": {
            "$ref": "#/definitions/protoSupplierPrintingMethod"
          }
        },
        "finishingOptions": {
          "type": "array",
          "items": {
            "$ref": "#/definitions/protoSupplierFinishingOption"
          }
        },
        "productCategories": {
          "type": "array",
          "items": {
            "$ref": "#/definitions/protoSupplierProductCategory"
          }
        }
      }
    },
    "protoUpdateMyCompanyResponse": {
      "type": "object",
      "properties": {
        "company": {
          "$ref": "#/definitions/protoCompany"
        },
        "printingMethods": {
          "type": "array",
          "items": {
            "$ref": "#/definitions/protoSupplierPrintingMethod"
          }
        },
        "finishingOptions": {
          "type": "array",
          "items": {
            "$ref": "#/definitions/protoSupplierFinishingOption"
          }
        },
        "productCategories": {
          "type": "array",
          "items": {
            "$ref": "#/definitions/protoSupplierProductCategory"
          }
        },
        "users": {
          "type": "array",
          "items": {
            "$ref": "#/definitions/protoSupplierAdmin"
          }
        }
      }
    },
    "protobufAny": {
      "type": "object",
      "properties": {
        "type_url": {
          "type": "string"
        },
        "value": {
          "type": "string",
          "format": "byte"
        }
      }
    },
    "runtimeError": {
      "type": "object",
      "properties": {
        "error": {
          "type": "string"
        },
        "code": {
          "type": "integer",
          "format": "int32"
        },
        "message": {
          "type": "string"
        },
        "details": {
          "type": "array",
          "items": {
            "$ref": "#/definitions/protobufAny"
          }
        }
      }
    }
  }
}
